{
  "Version": "0.0.1",
  "ModID": "pascalmod",
  "IncompatibleIds": null,
  "ModDependencies": null,
  "Category": {
    "Chinese": "游戏玩法",
    "English": "Gameplay",
    "French": null,
    "German": "Spielablauf",
    "Italian": null,
    "Japanese": null,
    "Korean": null,
    "Polish": null,
    "Russian": null,
    "Spanish": null,
    "Taiwanese": null
  },
  "ModName": {
    "Chinese": "趴改装",
    "English": "Pascalmod",
    "French": null,
    "German": "Pascalmod",
    "Italian": null,
    "Japanese": null,
    "Korean": null,
    "Polish": null,
    "Russian": null,
    "Spanish": null,
    "Taiwanese": null
  },
  "Description": {
    "Chinese": "Test Mod",
    "English": "Test Mod",
    "French": null,
    "German": "Test Mod",
    "Italian": null,
    "Japanese": null,
    "Korean": null,
    "Polish": null,
    "Russian": "Povtorite",
    "Spanish": null,
    "Taiwanese": null
  },
  "KnownIssues": [
    {
      "Chinese": "meyyou",
      "English": "None",
      "French": null,
      "German": "None",
      "Italian": null,
      "Japanese": null,
      "Korean": null,
      "Polish": null,
      "Russian": null,
      "Spanish": null,
      "Taiwanese": null
    }
  ],
  "DLCDependencies": [
    {
      "DLC": "SunkenTreasures",
      "Dependant": "atLeastOneRequired"
    },
    {
      "DLC": "ThePassage",
      "Dependant": "atLeastOneRequired"
    }
  ],
  "CreatorName": "Niederaussem",
  "CreatorContact": "Discord: niederaussem",
  "Image" : null,
  "ModioResourceId" : 3211468
}
